{
  "dev": {
    "awscloudformation": {
      "AuthRoleName": "amplify-amplifyauthlog-dev-151940-authRole",
      "UnauthRoleArn": "arn:aws:iam::810109935809:role/amplify-amplifyauthlog-dev-151940-unauthRole",
      "AuthRoleArn": "arn:aws:iam::810109935809:role/amplify-amplifyauthlog-dev-151940-authRole",
      "Region": "eu-west-2",
      "DeploymentBucketName": "amplify-amplifyauthlog-dev-151940-deployment",
      "UnauthRoleName": "amplify-amplifyauthlog-dev-151940-unauthRole",
      "StackName": "amplify-amplifyauthlog-dev-151940",
      "StackId": "arn:aws:cloudformation:eu-west-2:810109935809:stack/amplify-amplifyauthlog-dev-151940/79ff19d0-2e68-11eb-9e8a-0a6218ea65f8",
      "AmplifyAppId": "d1gweyvunjdy0o"
    }
  }
}